﻿Designator,Footprint,Quantity,Value,LCSC Part #
C1,0805,1,100nF,
"H1, H2",MountingHole_3.2mm_M3,2,MountingHole,
J1,PinHeader_1x08_P2.54mm_Horizontal,1,A500 Keyboard,
J2,TerminalBlock_4Ucon_1x07_P3.50mm_Horizontal,1,A4000 KB Cable,
J3,PinHeader_1x03_P2.54mm_Vertical,1,LED,
